{
  "armour": [
    {
      "name": "Battle Robe",
      "cost": 25,
      "ac": 11,
      "weight": 10
    },
    {
      "name": "Crested Helmet",
      "cost": 15,
      "ac": 1,
      "weight": 13
    },
    {
      "name": "Gauntlet",
      "cost": 5,
      "ac": 1,
      "weight": 2
    }
  ]
}